Tutorial: Omics data analysis with DataSHIELD
…
The differential expression analysis is then performed by:

ans.gender <- ds.limma(model =  ~ gdc_cases.demographic.gender, 
                       Set = "rse", type.data = "RNAseq", 
                       sva = FALSE)

Notice that we have set type.data='RNAseq' to consider that our data are counts obtained from a RNA-seq experiment. By indicating so, the differential analysis is performed by using voom + limma as previously mention.

The top differentially expressed genes can be visualized by:

ans.gender

$study1
# A tibble: 58,037 x 10
   id                  logFC   CI.L   CI.R AveExpr     t   P.Value adj.P.Val     B     SE
   <chr>               <dbl>  <dbl>  <dbl>   <dbl> <dbl>     <dbl>     <dbl> <dbl>  <dbl>
 1 ENSG00000233070.1   10.8   10.4   11.2  -5.59    55.2 2.89e-196 1.68e-191  418. 0.0763
 2 ENSG00000274655.1  -12.4  -12.8  -11.9  -7.71   -54.8 5.47e-195 1.59e-190  416. 0.460 
 3 ENSG00000260197.1   10.1    9.74  10.6  -5.88    48.4 2.45e-175 4.73e-171  373. 0.0601
 4 ENSG00000213318.4   11.4   10.9   11.9  -4.35    45.0 5.62e-164 8.16e-160  345. 0.0649
 5 ENSG00000231535.5    8.98   8.57   9.39 -7.38    42.9 9.49e-157 1.10e-152  334. 0.0886
 6 ENSG00000270641.1  -10.2  -10.7   -9.73  0.0618 -41.7 2.19e-152 2.12e-148  331. 0.118 
 7 ENSG00000277577.1  -11.3  -11.9  -10.8  -8.08   -41.1 3.13e-150 2.59e-146  321. 0.127 
 8 ENSG00000229807.10 -11.0  -11.6  -10.5  -0.211  -37.6 1.69e-137 1.09e-133  297. 0.0814
 9 ENSG00000278847.1    7.91   7.50   8.32 -7.94    37.9 1.12e-138 8.14e-135  294. 0.0895
10 ENSG00000176728.7   11.1   10.5   11.8  -4.40    36.1 1.46e-131 8.48e-128  277. 0.0923
# ... with 58,027 more rows
…
Then, the last step is to meta-analyze the results. Different methods can be used to this end. We have implemented a method that meta-analyze the p-pvalues of each study as follows:

ans.meta <- metaPvalues(ans.limma)
ans.meta

# A tibble: 481,868 x 4
   id                study1      study2   p.meta
   <chr>              <dbl>       <dbl>    <dbl>
 1 cg13138089 0.00000000190 0.00000763  4.78e-13
 2 cg25317941 0.0000000179  0.00000196  1.12e-12
 3 cg02812891 0.00000000731 0.00000707  1.63e-12
 4 cg12706938 0.00000000425 0.0000161   2.14e-12
 5 cg16026647 0.000000101   0.000000797 2.51e-12
 6 cg12695465 0.00000000985 0.0000144   4.33e-12
 7 cg21171625 0.000000146   0.00000225  9.78e-12
 8 cg13772815 0.00000000327 0.000122    1.18e-11
 9 cg00228891 0.000000166   0.00000283  1.38e-11
10 cg21488617 0.0000000186  0.0000299   1.62e-11
# ... with 481,858 more rows
…
Here In some cases inflation can be observed, so that, correction for cell-type or surrogate variables must be performed. We describe how we can do that in the next two sections.

3.2.3 Adjusting for Surrogate Variables

The vast majority of omic studies require to control for unwanted variability. The surrogate variable analysis (SVA) can address this issue by estimating some hidden covariates that capture differences across individuals due to some artifacts such as batch effects or sample quality sam among others. The method is implemented in SVA package.

Performing this type of analysis using the ds.lmFeature function is not allowed since estimating SVA would require to implement a non-disclosive method that computes SVA from the different servers. This will be a future topic of the dsOmicsClient. NOTE that, estimating SVA separately at each server would not be a good idea since the aim of SVA is to capture differences mainly due to experimental issues among ALL individuals. What we can do instead is to use the ds.limma function to perform the analyses adjusted for SVA at each study.

ans.sva <- ds.limma(model = ~ diagnosis + Sex, 
                    Set = "methy",
                    sva = TRUE, annotCols = c("CHR", "UCSC_RefGene_Name"))
ans.sva

$study1
# A tibble: 481,868 x 12
   id    CHR   UCSC_RefGene_Na~   logFC    CI.L    CI.R AveExpr     t P.Value adj.P.Val     B
   <chr> <chr> <chr>              <dbl>   <dbl>   <dbl>   <dbl> <dbl>   <dbl>     <dbl> <dbl>
 1 cg10~ 19    "GNG7"           -0.0547 -0.0721 -0.0373   0.338 -6.25 1.31e-8   0.00591  8.51
 2 cg13~ 17    ""               -0.0569 -0.0757 -0.0381   0.437 -6.00 3.91e-8   0.00591  7.43
 3 cg11~ 19    "PODNL1;PODNL1;~  0.0334  0.0223  0.0445   0.568  5.97 4.53e-8   0.00591  7.29
 4 cg27~ 17    "SLC47A2;SLC47A~  0.0274  0.0182  0.0365   0.548  5.95 4.91e-8   0.00591  7.21
 5 cg21~ 6     ""               -0.0453 -0.0609 -0.0297   0.799 -5.78 1.05e-7   0.00666  6.46
 6 cg23~ 2     "MTA3"           -0.0327 -0.0440 -0.0215   0.200 -5.77 1.09e-7   0.00666  6.42
 7 cg10~ 16    "SALL1;SALL1"     0.0366  0.0240  0.0492   0.137  5.77 1.10e-7   0.00666  6.42
 8 cg24~ 1     ""                0.0317  0.0208  0.0427   0.821  5.76 1.11e-7   0.00666  6.41
 9 cg13~ 9     ""               -0.0326 -0.0440 -0.0213   0.367 -5.72 1.32e-7   0.00705  6.24
10 cg13~ 2     "ECEL1P2"        -0.106  -0.144  -0.0686   0.380 -5.61 2.15e-7   0.00835  5.76
# ... with 481,858 more rows, and 1 more variable: SE <dbl>

$study2
# A tibble: 481,868 x 12
   id    CHR   UCSC_RefGene_Na~   logFC    CI.L    CI.R AveExpr     t P.Value adj.P.Val     B
   <chr> <chr> <chr>              <dbl>   <dbl>   <dbl>   <dbl> <dbl>   <dbl>     <dbl> <dbl>
 1 cg16~ 12    "LRP1"           -0.0418 -0.0548 -0.0289   0.388 -6.42 7.82e-9   0.00374  9.05
 2 cg25~ 1     ""               -0.0664 -0.0874 -0.0453   0.569 -6.27 1.55e-8   0.00374  8.37
 3 cg12~ 11    "NRXN2;NRXN2"    -0.0273 -0.0367 -0.0179   0.728 -5.81 1.13e-7   0.0149   6.42
 4 cg07~ 3     ""               -0.0393 -0.0529 -0.0258   0.160 -5.78 1.24e-7   0.0149   6.32
 5 cg07~ 6     "MUC21"          -0.0427 -0.0579 -0.0276   0.776 -5.61 2.63e-7   0.0163   5.59
 6 cg00~ 1     "CR1L"           -0.0568 -0.0771 -0.0365   0.350 -5.56 3.18e-7   0.0163   5.40
 7 cg11~ 12    "CNTN1;CNTN1"    -0.0443 -0.0601 -0.0284   0.152 -5.56 3.18e-7   0.0163   5.40
 8 cg03~ 7     "PGAM2;PGAM2"    -0.0442 -0.0600 -0.0283   0.211 -5.56 3.26e-7   0.0163   5.38
 9 cg07~ 1     "KCNAB2;KCNAB2"   0.0611  0.0392  0.0831   0.659  5.54 3.47e-7   0.0163   5.31
10 cg25~ 17    "WNK4"           -0.0392 -0.0533 -0.0251   0.512 -5.52 3.70e-7   0.0163   5.25
# ... with 481,858 more rows, and 1 more variable: SE <dbl>

attr(,"class")
[1] "dsLimma" "list"   

Then, data can be combined meta-anlyzed as follows:

ans.meta.sv <- metaPvalues(ans.sva)
ans.meta.sv

# A tibble: 481,868 x 4
   id               study1      study2   p.meta
   <chr>             <dbl>       <dbl>    <dbl>
 1 cg00228891 0.00000397   0.000000318 3.58e-11
 2 cg01301319 0.00000609   0.00000123  2.00e-10
 3 cg22962123 0.00000106   0.00000767  2.17e-10
 4 cg24302412 0.0000139    0.000000762 2.77e-10
 5 cg02812891 0.000000408  0.0000327   3.47e-10
 6 cg23859635 0.000000109  0.000190    5.29e-10
 7 cg13138089 0.000000215  0.000105    5.74e-10
 8 cg24938077 0.0000125    0.00000254  8.02e-10
 9 cg13772815 0.0000000391 0.00132     1.27e- 9
10 cg21212881 0.000000340  0.000248    2.04e- 9
# ... with 481,858 more rows
…
The HWE test can be performed to selected chromosomes using the argument chromosomes, only the autosomes can be selected when performing a HWE test, the encoding of the autosomes can be fetched with

ds.getChromosomeNames("gds.Data")$autosomes

NULL

Therefore, HWE can be performed by:

ds.exactHWE("gds.Data", sexcol = "gender", male = "1", female = "2", chromosome = "22")

$study1
# A tibble: 1,581 x 9
   snpID chr   nAA   nAB   nBB   MAF               minor.allele f                 pval              
   <int> <chr> <chr> <chr> <chr> <chr>             <chr>        <chr>             <chr>             
 1 95140 22    531   1082  640   0.475810031069685 A            0.03724945341034~ 0.0762378420092437
 2 95141 22    580   1092  590   0.497789566755084 A            0.03446388812448~ 0.101115839682148 
 3 95142 22    0     333   1951  0.07289842381786~ A            -0.0786304604486~ 3.29321452000707e~
 4 95143 22    0     225   2080  0.04880694143167~ A            -0.0513112884834~ 0.005713534221738~
 5 95144 22    176   831   1249  0.262189716312057 A            0.04792409337548~ 0.025554465064758 
 6 95145 22    249   1003  1055  0.32531426094495  A            0.00958157673233~ 0.635607524466151 
 7 95146 22    55    516   1738  0.135556517973149 A            0.04646033280618~ 0.0325126363699498
 8 95147 22    203   929   1164  0.290722996515679 A            0.01888804177461~ 0.362631409282596 
 9 95148 22    291   1035  985   0.349848550411077 A            0.01549983175844~ 0.464409674690009 
10 95149 22    11    276   2013  0.06478260869565~ A            0.00966929694008~ 0.604847402951204 
# ... with 1,571 more rows

attr(,"class")
[1] "dsexactHWE" "list"      

Similarly, allele frequencies estimates can be estimated by:

ds.alleleFrequency("gds.Data", sexcol = "gender", male = "1", female = "2")

$study1
# A tibble: 99,289 x 7
          M       F      all   n.M   n.F     n      MAF
      <dbl>   <dbl>    <dbl> <dbl> <dbl> <dbl>    <dbl>
 1 0.015    0.0147  0.0149    1200  1086  2286 0.0149  
 2 0.000837 0.00276 0.00175   1195  1087  2282 0.00175 
 3 0.00330  0.00548 0.00433   1212  1095  2307 0.00433 
 4 0.0124   0.00868 0.0106    1213  1095  2308 0.0106  
 5 0.00165  0       0.000866  1214  1095  2309 0.000866
 6 0.0712   0.0754  0.0732    1208  1094  2302 0.0732  
 7 0.00660  0.00913 0.00780   1213  1095  2308 0.00780 
 8 0.00248  0.00274 0.00261   1209  1093  2302 0.00261 
 9 0.182    0.181   0.181     1188  1071  2259 0.181   
10 0.00165  0       0.000868  1210  1094  2304 0.000868
# ... with 99,279 more rows
…
attr(,"class")
[1] "dsnSamples" "list"      

Now, we are ready to perform the required EXWAS by

ewas <- ds.limma(model = ~ h_greenyn300_preg_None,
                      Set = "methy2")

We can meta-analyze our results as we want, since we have the required information in our computer

ewas

$study1
# A tibble: 100 x 10
   id            logFC      CI.L      CI.R AveExpr     t P.Value adj.P.Val     B      SE
   <chr>         <dbl>     <dbl>     <dbl>   <dbl> <dbl>   <dbl>     <dbl> <dbl>   <dbl>
 1 cg14008030  0.0288   0.00537   0.0523    0.526   2.44  0.0165     0.613 -4.66 0.0100 
 2 cg23999112  0.0258   0.00428   0.0473    0.752   2.38  0.0193     0.613 -4.80 0.0118 
 3 cg18762746  0.00589  0.000781  0.0110    0.967   2.29  0.0243     0.613 -5.00 0.00594
 4 cg05597748 -0.0195  -0.0365   -0.00257   0.813  -2.29  0.0245     0.613 -5.01 0.0170 
 5 cg04496485 -0.00869 -0.0175    0.000171  0.0525 -1.95  0.0545     0.989 -5.70 0.00431
 6 cg12285627  0.0128  -0.00161   0.0272    0.615   1.76  0.0812     0.989 -6.03 0.0231 
 7 cg01097950  0.0160  -0.00253   0.0345    0.814   1.71  0.0899     0.989 -6.11 0.0119 
 8 cg08900511  0.0149  -0.00325   0.0330    0.845   1.63  0.107      0.989 -6.25 0.0142 
 9 cg05475702 -0.0212  -0.0480    0.00557   0.703  -1.57  0.119      0.989 -6.34 0.0133 
10 cg16736630 -0.0335  -0.0781    0.0112    0.501  -1.49  0.140      0.989 -6.47 0.0281 
# ... with 90 more rows

$study2
# A tibble: 100 x 10
   id            logFC      CI.L    CI.R AveExpr     t P.Value adj.P.Val     B      SE
   <chr>         <dbl>     <dbl>   <dbl>   <dbl> <dbl>   <dbl>     <dbl> <dbl>   <dbl>
 1 cg14008030 0.0163    0.000457 0.0322   0.531   2.03  0.0438     0.989 -6.06 0.00660
 2 cg11422233 0.00539  -0.000365 0.0111   0.0830  1.85  0.0662     0.989 -6.41 0.00802
 3 cg05662829 0.0165   -0.00126  0.0342   0.815   1.84  0.0684     0.989 -6.44 0.00322
 4 cg06402284 0.00306  -0.000481 0.00660  0.0408  1.71  0.0897     0.989 -6.66 0.00993
 5 cg00381604 0.00282  -0.000583 0.00621  0.0306  1.64  0.104      0.989 -6.78 0.00172
 6 cg01551879 0.00129  -0.000291 0.00287  0.0181  1.61  0.109      0.989 -6.82 0.0147 
 7 cg12045430 0.00492  -0.00144  0.0113   0.0361  1.53  0.129      0.989 -6.95 0.00723
 8 cg24699430 0.000768 -0.000275 0.00181  0.0145  1.46  0.148      0.989 -7.05 0.00878
 9 cg04407431 0.000908 -0.000327 0.00214  0.0173  1.45  0.148      0.989 -7.06 0.00859
10 cg08167039 0.00203  -0.000735 0.00479  0.0352  1.45  0.149      0.989 -7.06 0.0150 
# ... with 90 more rows

$study3
# A tibble: 100 x 10
   id            logFC      CI.L      CI.R AveExpr     t P.Value adj.P.Val     B      SE
   <chr>         <dbl>     <dbl>     <dbl>   <dbl> <dbl>   <dbl>     <dbl> <dbl>   <dbl>
 1 cg09989996  0.00735  0.00288   0.0118    0.950   3.25 0.00146     0.146 -2.75 0.00815
 2 cg13938959 -0.0254  -0.0423   -0.00853   0.731  -2.98 0.00347     0.173 -3.54 0.00907
 3 cg10988531  0.0193   0.00539   0.0331    0.834   2.75 0.00686     0.229 -4.17 0.00818
 4 cg14057946  0.0114   0.00225   0.0206    0.0945  2.46 0.0151      0.377 -4.87 0.0121 
 5 cg03213877 -0.00174 -0.00333  -0.000160  0.0174 -2.18 0.0312      0.624 -5.51 0.00536
 6 cg01068023 -0.00801 -0.0156   -0.000416  0.888  -2.09 0.0388      0.647 -5.70 0.0186 
 7 cg21996134  0.00995 -0.000355  0.0203    0.954   1.91 0.0583      0.790 -6.05 0.00899
 8 cg21870274 -0.0165  -0.0343    0.00127   0.814  -1.84 0.0685      0.790 -6.18 0.0105 
 9 cg11954957  0.0272  -0.00282   0.0573    0.746   1.79 0.0753      0.790 -6.26 0.0130 
10 cg18263059  0.0107  -0.00125   0.0226    0.0381  1.77 0.0790      0.790 -6.30 0.0169 
# ... with 90 more rows

attr(,"class")
[1] "dsLimma" "list"   

We have implemented a very simple function that makes use of metap package to combine p-values from microarray experiments. For both ATHELETE and LifeCycle researchers we highly recommend to use our EASIER package

metaPvalues(ewas)

# A tibble: 100 x 5
   id         study1 study2  study3 p.meta
   <chr>       <dbl>  <dbl>   <dbl>  <dbl>
 1 cg14008030 0.0165 0.0438 0.795   0.0209
 2 cg14057946 0.263  0.213  0.0151  0.0280
 3 cg09989996 0.976  0.955  0.00146 0.0401
 4 cg23999112 0.0193 0.771  0.102   0.0433
 5 cg13938959 0.967  0.829  0.00347 0.0672
 6 cg05597748 0.0245 0.353  0.334   0.0691
 7 cg16047670 0.158  0.182  0.105   0.0713
 8 cg10988531 0.935  0.544  0.00686 0.0791
 9 cg18762746 0.0243 0.402  0.463   0.0949
10 cg01068023 0.693  0.255  0.0388  0.126 
# ... with 90 more rows
…
